[
  {
    "element-6066-11e4-a52e-4f735466cecf": "b13587e4-b0b7-44ad-bdae-3346d3aa23f9"
  },
  {
    "element-6066-11e4-a52e-4f735466cecf": "a3c91ebc-9439-4ae9-864c-4776f0721c95"
  },
  {
    "element-6066-11e4-a52e-4f735466cecf": "c40ff863-dffe-4107-9934-fbdbf768ea15"
  },
  {
    "element-6066-11e4-a52e-4f735466cecf": "8e32ead7-314b-4155-bc3b-c17c254d7e76"
  },
  {
    "element-6066-11e4-a52e-4f735466cecf": "fffc7565-a4a7-4d27-b75c-e3516df385e7"
  },
  {
    "element-6066-11e4-a52e-4f735466cecf": "b5e88342-ef1c-4882-8e0c-a59a88dabbdd"
  },
  {
    "element-6066-11e4-a52e-4f735466cecf": "7863863a-f0b0-4b39-90b6-f9d92b21afd0"
  },
  {
    "element-6066-11e4-a52e-4f735466cecf": "c2e048a8-aca1-430a-81b2-c642e4b45749"
  },
  {
    "element-6066-11e4-a52e-4f735466cecf": "ffcd7cf8-b0c3-4e8e-a257-4bdda3ca3dc1"
  },
  {
    "element-6066-11e4-a52e-4f735466cecf": "807f518c-2eb7-4b32-b22a-c133001dd039"
  },
  {
    "element-6066-11e4-a52e-4f735466cecf": "07fa0c2a-d402-4138-a695-8e5f0b5f2b58"
  },
  {
    "element-6066-11e4-a52e-4f735466cecf": "36007c40-243e-492f-bb9d-31f4220da12d"
  },
  {
    "element-6066-11e4-a52e-4f735466cecf": "d97abf75-a2c1-4fc3-92bb-69357858ecc1"
  },
  {
    "element-6066-11e4-a52e-4f735466cecf": "0e4dfb46-7902-4bf2-8a48-9c9082a56485"
  }
]