[
  {
    "element-6066-11e4-a52e-4f735466cecf": "31ebccb6-03a4-4bac-ae07-e93cc29dc455"
  },
  {
    "element-6066-11e4-a52e-4f735466cecf": "784782fc-2bcf-46a6-925a-1e1b06a2083d"
  },
  {
    "element-6066-11e4-a52e-4f735466cecf": "b7aca459-5327-4139-b20c-d34527599a68"
  },
  {
    "element-6066-11e4-a52e-4f735466cecf": "8ea79c25-a05e-40c8-bd3d-aadc7e9a32a7"
  },
  {
    "element-6066-11e4-a52e-4f735466cecf": "abe84bfc-1997-4718-9d87-5c138ed4f69c"
  },
  {
    "element-6066-11e4-a52e-4f735466cecf": "4a7dcb95-3062-41b7-9d40-bc4a49b3ff02"
  },
  {
    "element-6066-11e4-a52e-4f735466cecf": "379ccf3a-ffdb-4355-b599-1e12446cb3b4"
  },
  {
    "element-6066-11e4-a52e-4f735466cecf": "5d13357c-c0ae-43e8-91d4-50de257f5c4d"
  },
  {
    "element-6066-11e4-a52e-4f735466cecf": "61426fe4-1f0d-4aaf-86c0-a3f8a2d39fbc"
  },
  {
    "element-6066-11e4-a52e-4f735466cecf": "635c7d26-3c48-4f4e-9b23-78241f85fb94"
  },
  {
    "element-6066-11e4-a52e-4f735466cecf": "3a58060b-337f-4dae-b5b4-58bbfee0d1c2"
  },
  {
    "element-6066-11e4-a52e-4f735466cecf": "4cc0e23f-9bd3-4fc7-b374-0e011c6e9ebb"
  },
  {
    "element-6066-11e4-a52e-4f735466cecf": "af772c98-b990-4010-a405-b47410e104aa"
  },
  {
    "element-6066-11e4-a52e-4f735466cecf": "4d5b8d58-0c78-404e-a1a6-edcb1c4e72e0"
  }
]