{
  "error": "no such element",
  "message": "no such element: Unable to locate element: {\"method\":\"css selector\",\"selector\":\"a[href=\"https://agapeintern.wpengine.com/terms-of-use/\"]\"}\n  (Session info: chrome=104.0.5112.81)",
  "stacktrace": "Backtrace:\n\tOrdinal0 [0x00D86463+2188387]\n\tOrdinal0 [0x00D1E461+1762401]\n\tOrdinal0 [0x00C33D78+802168]\n\tOrdinal0 [0x00C61880+989312]\n\tOrdinal0 [0x00C61B1B+989979]\n\tOrdinal0 [0x00C8E912+1173778]\n\tOrdinal0 [0x00C7C824+1099812]\n\tOrdinal0 [0x00C8CC22+1166370]\n\tOrdinal0 [0x00C7C5F6+1099254]\n\tOrdinal0 [0x00C56BE0+945120]\n\tOrdinal0 [0x00C57AD6+948950]\n\tGetHandleVerifier [0x010271F2+2712546]\n\tGetHandleVerifier [0x0101886D+2652765]\n\tGetHandleVerifier [0x00E1002A+520730]\n\tGetHandleVerifier [0x00E0EE06+516086]\n\tOrdinal0 [0x00D2468B+1787531]\n\tOrdinal0 [0x00D28E88+1805960]\n\tOrdinal0 [0x00D28F75+1806197]\n\tOrdinal0 [0x00D31DF1+1842673]\n\tBaseThreadInitThunk [0x7551FA29+25]\n\tRtlGetAppContainerNamedObjectPath [0x77517A9E+286]\n\tRtlGetAppContainerNamedObjectPath [0x77517A6E+238]\n"
}