[
  {
    "element-6066-11e4-a52e-4f735466cecf": "e49727d4-d350-4a3a-9e67-8c02f8a4fafd"
  },
  {
    "element-6066-11e4-a52e-4f735466cecf": "593ee2bf-fb96-4ba7-bf41-a1a286fc2040"
  },
  {
    "element-6066-11e4-a52e-4f735466cecf": "01085398-95e4-4800-87fc-fdb7e96f7c6a"
  },
  {
    "element-6066-11e4-a52e-4f735466cecf": "386dcd53-d155-4c62-a5fd-5f0f9dee185a"
  },
  {
    "element-6066-11e4-a52e-4f735466cecf": "57a677ca-5a08-46ee-86a2-d53d23ddbc5f"
  },
  {
    "element-6066-11e4-a52e-4f735466cecf": "d079fb29-e6e2-4ea8-b8ad-26b0312210d4"
  },
  {
    "element-6066-11e4-a52e-4f735466cecf": "1a778b16-d15a-4088-b631-78f0b82f8400"
  },
  {
    "element-6066-11e4-a52e-4f735466cecf": "4e825228-5feb-42ac-a2d2-1b387f0a88c0"
  },
  {
    "element-6066-11e4-a52e-4f735466cecf": "13e35e68-18f7-438d-bebf-499479ed0429"
  },
  {
    "element-6066-11e4-a52e-4f735466cecf": "eb4431ab-7ef3-46b2-9147-fe068f7d7cfb"
  },
  {
    "element-6066-11e4-a52e-4f735466cecf": "406e77ff-eff3-42bc-8f34-135f91d65cfb"
  },
  {
    "element-6066-11e4-a52e-4f735466cecf": "5bb82c67-23cd-4852-9f07-63a3b855f515"
  },
  {
    "element-6066-11e4-a52e-4f735466cecf": "b63f2dfd-d766-49ca-b35d-a1534696b4bf"
  },
  {
    "element-6066-11e4-a52e-4f735466cecf": "7eb4339d-5080-4963-aed9-0bd937ff4846"
  },
  {
    "element-6066-11e4-a52e-4f735466cecf": "cbf230f3-50f4-411f-861e-4438e87eaa1a"
  },
  {
    "element-6066-11e4-a52e-4f735466cecf": "00113830-5665-43a0-a79b-d8347d27986c"
  },
  {
    "element-6066-11e4-a52e-4f735466cecf": "345d2c6f-17ca-4cff-bf65-f1be1725623b"
  },
  {
    "element-6066-11e4-a52e-4f735466cecf": "31f97292-a3a6-48cd-ac2a-28b376b37346"
  },
  {
    "element-6066-11e4-a52e-4f735466cecf": "cda5633e-8b17-466f-8802-e28d587eff40"
  },
  {
    "element-6066-11e4-a52e-4f735466cecf": "dcb34ded-a03f-41b5-8001-bc702fcf61ff"
  },
  {
    "element-6066-11e4-a52e-4f735466cecf": "7c3b742d-b53c-4343-b0c3-335d1aed5d6b"
  },
  {
    "element-6066-11e4-a52e-4f735466cecf": "61dafc5b-232c-48dc-ba3b-0179a807aa81"
  },
  {
    "element-6066-11e4-a52e-4f735466cecf": "7bb658ee-277b-48e8-ad1a-6b7707b8f2db"
  },
  {
    "element-6066-11e4-a52e-4f735466cecf": "299fc7b3-b31c-4486-80d7-81ae4954a4a9"
  }
]