[
  {
    "element-6066-11e4-a52e-4f735466cecf": "6eea9c25-1e22-4aa3-b878-9d014a7dc388"
  },
  {
    "element-6066-11e4-a52e-4f735466cecf": "521610e0-3b06-49af-b126-cfc614282561"
  },
  {
    "element-6066-11e4-a52e-4f735466cecf": "e5f35fbb-2fbe-47de-971e-ab2ee63342c1"
  },
  {
    "element-6066-11e4-a52e-4f735466cecf": "176d1e18-d5e2-4c61-a534-5f1c4dfe81b9"
  },
  {
    "element-6066-11e4-a52e-4f735466cecf": "abf168e7-3ec0-48d7-9c09-05423224e896"
  },
  {
    "element-6066-11e4-a52e-4f735466cecf": "a8f2009a-7ca9-42c4-a4e8-8fe4b44d0fc2"
  },
  {
    "element-6066-11e4-a52e-4f735466cecf": "209c7264-a514-485f-8317-ebf1adfc5662"
  },
  {
    "element-6066-11e4-a52e-4f735466cecf": "e315ce85-ce39-4d34-9f88-d1b977afa21c"
  },
  {
    "element-6066-11e4-a52e-4f735466cecf": "14cfc9c0-140a-47ab-b2a0-ef12be11f234"
  },
  {
    "element-6066-11e4-a52e-4f735466cecf": "bc89edb9-5714-47b9-afa5-4236adade666"
  },
  {
    "element-6066-11e4-a52e-4f735466cecf": "ee28343a-6056-43e2-8bc1-f7318e3fdbbd"
  },
  {
    "element-6066-11e4-a52e-4f735466cecf": "7156b8c6-63d3-49f8-bb55-6a64e8427033"
  },
  {
    "element-6066-11e4-a52e-4f735466cecf": "f5fcdceb-90d9-4892-b3d8-7cf1652fa8ad"
  },
  {
    "element-6066-11e4-a52e-4f735466cecf": "782b72d1-8d59-4f1f-9447-18489af701ea"
  },
  {
    "element-6066-11e4-a52e-4f735466cecf": "533146f4-dfde-46df-8cd8-2e15ac51c035"
  },
  {
    "element-6066-11e4-a52e-4f735466cecf": "d173c369-2ef1-4b44-8cd3-c77a6fc84d8f"
  },
  {
    "element-6066-11e4-a52e-4f735466cecf": "24a3fc91-51ea-4d62-b048-315d16ca2592"
  },
  {
    "element-6066-11e4-a52e-4f735466cecf": "3762b50f-336a-4db1-92bc-447a2fb9b992"
  },
  {
    "element-6066-11e4-a52e-4f735466cecf": "597fbe05-132f-4f92-8379-c4185d191648"
  },
  {
    "element-6066-11e4-a52e-4f735466cecf": "8fbdc9da-ebd5-41d4-8018-d07ab72ea80a"
  },
  {
    "element-6066-11e4-a52e-4f735466cecf": "461fcbe4-c0e7-4ace-972f-f04a81c51b24"
  }
]