[
  {
    "element-6066-11e4-a52e-4f735466cecf": "318d1dda-50c5-4835-800f-94b1b5aef21e"
  },
  {
    "element-6066-11e4-a52e-4f735466cecf": "c4a5ead1-dd02-4765-bbea-dc6d824f6e1f"
  },
  {
    "element-6066-11e4-a52e-4f735466cecf": "55879772-a939-4e78-8be1-bca459dcfbac"
  },
  {
    "element-6066-11e4-a52e-4f735466cecf": "62d9c6b3-9fe1-49a1-97bf-41de20e29300"
  },
  {
    "element-6066-11e4-a52e-4f735466cecf": "c114d243-88f8-43a2-8d13-247747e507cc"
  },
  {
    "element-6066-11e4-a52e-4f735466cecf": "d497e0c4-bbeb-4322-b322-fc43c9591d98"
  },
  {
    "element-6066-11e4-a52e-4f735466cecf": "05711abd-b3a8-4953-9450-caff1f70166b"
  },
  {
    "element-6066-11e4-a52e-4f735466cecf": "49209e83-2b99-4e32-819f-58da0e8025a4"
  },
  {
    "element-6066-11e4-a52e-4f735466cecf": "7701d7c3-7d4d-450f-af16-5b89c91d45b7"
  },
  {
    "element-6066-11e4-a52e-4f735466cecf": "97fb97ac-469d-42a5-8994-6ead022c0bc8"
  },
  {
    "element-6066-11e4-a52e-4f735466cecf": "895dacd4-125a-4e6f-847e-c30fc39393b4"
  },
  {
    "element-6066-11e4-a52e-4f735466cecf": "2510baf6-d2f4-4ea2-b74f-6d690f6efc8b"
  },
  {
    "element-6066-11e4-a52e-4f735466cecf": "8d85c0bc-f7cb-4d33-bddd-20354ae7b26c"
  }
]