[
  {
    "element-6066-11e4-a52e-4f735466cecf": "e0c58fc9-61ac-4f98-a246-a7df5febc952"
  },
  {
    "element-6066-11e4-a52e-4f735466cecf": "87d0e5f7-0276-404d-84e0-4a03060d96e2"
  },
  {
    "element-6066-11e4-a52e-4f735466cecf": "95cac1d7-88fd-4445-8cc0-881cba12d084"
  },
  {
    "element-6066-11e4-a52e-4f735466cecf": "afc7fb14-04aa-49c9-aa3b-0158b9c992c7"
  },
  {
    "element-6066-11e4-a52e-4f735466cecf": "daaaf68a-8579-4322-a6f2-f056fff95634"
  },
  {
    "element-6066-11e4-a52e-4f735466cecf": "018e2b5b-8006-4de2-8389-3e69daa3301d"
  },
  {
    "element-6066-11e4-a52e-4f735466cecf": "276f2b46-d957-4279-9fe4-2a7014e62d9c"
  },
  {
    "element-6066-11e4-a52e-4f735466cecf": "8bd2aa41-594d-4288-b941-6b80b72ef9ec"
  },
  {
    "element-6066-11e4-a52e-4f735466cecf": "8b8f947f-3622-4872-b511-7d164176ecb1"
  },
  {
    "element-6066-11e4-a52e-4f735466cecf": "b26a8e2c-9d39-4566-b72a-17a822542201"
  },
  {
    "element-6066-11e4-a52e-4f735466cecf": "7bcabd46-11ba-4807-9f15-ee3a65e8fecf"
  },
  {
    "element-6066-11e4-a52e-4f735466cecf": "c85e36b8-cb38-47c2-8b75-ee562fad1378"
  },
  {
    "element-6066-11e4-a52e-4f735466cecf": "d71d35aa-8ad2-4518-8ec8-1d0d051f6fd7"
  },
  {
    "element-6066-11e4-a52e-4f735466cecf": "adbf7b9a-cd32-469b-8629-829cc63ff111"
  },
  {
    "element-6066-11e4-a52e-4f735466cecf": "08d10e60-89b4-4a3e-989f-c1b47ed26bad"
  },
  {
    "element-6066-11e4-a52e-4f735466cecf": "e5a736ed-eaae-4e2f-bb27-d7f5293d5613"
  }
]