[
  {
    "element-6066-11e4-a52e-4f735466cecf": "8a367378-9cb8-48bf-a421-920f652bd6c1"
  },
  {
    "element-6066-11e4-a52e-4f735466cecf": "889b295d-4038-4775-9ad2-4f1f1f0b1dc2"
  },
  {
    "element-6066-11e4-a52e-4f735466cecf": "44f6a22d-348e-40e5-afc0-90abb4f88aa3"
  },
  {
    "element-6066-11e4-a52e-4f735466cecf": "90da62da-7a21-4d61-8611-d5d4c75150e3"
  },
  {
    "element-6066-11e4-a52e-4f735466cecf": "4e880bbe-91b1-46d3-882f-048a7c6f70d6"
  },
  {
    "element-6066-11e4-a52e-4f735466cecf": "ec469797-83f7-4ec8-b951-a5b9651b19e8"
  },
  {
    "element-6066-11e4-a52e-4f735466cecf": "174b662f-3782-4bef-aa94-a7b31e3fb6f6"
  },
  {
    "element-6066-11e4-a52e-4f735466cecf": "9e7f4eb5-e4ff-4d2c-b38d-41843619ce63"
  },
  {
    "element-6066-11e4-a52e-4f735466cecf": "00265dc4-6881-4872-838e-99ce210f95b8"
  },
  {
    "element-6066-11e4-a52e-4f735466cecf": "aaa4c36b-55ed-436e-bf02-33408983b6c2"
  },
  {
    "element-6066-11e4-a52e-4f735466cecf": "05fbdd51-1cf7-4f11-8c9e-a999e036a81d"
  },
  {
    "element-6066-11e4-a52e-4f735466cecf": "f6c5fc27-1673-4445-a97f-3163889b9149"
  },
  {
    "element-6066-11e4-a52e-4f735466cecf": "2faaf3b6-7354-4359-8a39-d8b6a21c8952"
  }
]