[
  {
    "element-6066-11e4-a52e-4f735466cecf": "934d2a9f-89c2-4c2e-919f-2e5d16a11e97"
  },
  {
    "element-6066-11e4-a52e-4f735466cecf": "de79dfe2-f324-4482-9b9f-1b632354e6c8"
  },
  {
    "element-6066-11e4-a52e-4f735466cecf": "34e2591d-4272-4810-8586-06c7176c9d05"
  },
  {
    "element-6066-11e4-a52e-4f735466cecf": "59847a2e-c939-4290-96e3-7d79878670c8"
  },
  {
    "element-6066-11e4-a52e-4f735466cecf": "59c54fbc-e839-4a34-bbf3-c5423d8ad70c"
  },
  {
    "element-6066-11e4-a52e-4f735466cecf": "572ef911-3c8c-4a5e-8e2e-08f3d6f3da7f"
  },
  {
    "element-6066-11e4-a52e-4f735466cecf": "ac569e4e-4a3b-4645-a8ff-9bfdcb717602"
  },
  {
    "element-6066-11e4-a52e-4f735466cecf": "c38d12ca-32a2-48f3-bae8-4bc578c1d31d"
  },
  {
    "element-6066-11e4-a52e-4f735466cecf": "44a6d7fa-441e-4ce4-92e8-b222dd07014d"
  },
  {
    "element-6066-11e4-a52e-4f735466cecf": "16be12e9-7b43-4745-93f1-76c767c99526"
  },
  {
    "element-6066-11e4-a52e-4f735466cecf": "d20f5c9b-f667-4ccc-9529-d0ed5b238b8a"
  },
  {
    "element-6066-11e4-a52e-4f735466cecf": "92e06b22-17a2-4d33-958f-2fa70dd6911f"
  },
  {
    "element-6066-11e4-a52e-4f735466cecf": "c0d0493a-6338-40ac-a8d4-9da94f2ade7e"
  },
  {
    "element-6066-11e4-a52e-4f735466cecf": "6ef0345d-6024-4d2d-b6b8-50a2687c6a22"
  },
  {
    "element-6066-11e4-a52e-4f735466cecf": "cb6a1613-d7ed-4d85-bb10-8513922a007e"
  },
  {
    "element-6066-11e4-a52e-4f735466cecf": "6bfbb20f-8a1a-4e72-b535-3d06fe27fdda"
  },
  {
    "element-6066-11e4-a52e-4f735466cecf": "ff20cf05-d369-48e3-b2f4-de2a210dbd61"
  }
]