[
  {
    "element-6066-11e4-a52e-4f735466cecf": "a7c98c4f-e25f-4362-a942-c7f7a5c616ae"
  },
  {
    "element-6066-11e4-a52e-4f735466cecf": "d3ba33ae-07c9-4622-9bf9-81cbdaf6c30d"
  },
  {
    "element-6066-11e4-a52e-4f735466cecf": "6c5d3ac9-627e-4831-b730-3791bbcdfff3"
  },
  {
    "element-6066-11e4-a52e-4f735466cecf": "3bd53f6c-d0aa-4740-9103-e1ae304451dd"
  },
  {
    "element-6066-11e4-a52e-4f735466cecf": "1ddb8e0e-d817-409e-924d-8122332360df"
  },
  {
    "element-6066-11e4-a52e-4f735466cecf": "782e458d-f9fa-4684-9d91-afbc798d627d"
  },
  {
    "element-6066-11e4-a52e-4f735466cecf": "8d1731fe-7466-43e3-ae00-9ea90164e41d"
  },
  {
    "element-6066-11e4-a52e-4f735466cecf": "3868fabe-2cc7-4d74-8b35-926f44c55cb9"
  },
  {
    "element-6066-11e4-a52e-4f735466cecf": "9761b457-da48-40e4-aaa1-00e8c20d8413"
  },
  {
    "element-6066-11e4-a52e-4f735466cecf": "08eca52a-4e2f-46bc-aa45-ffc1a20a1ef4"
  },
  {
    "element-6066-11e4-a52e-4f735466cecf": "365eaf6a-852e-4c98-84fc-9114fb9f5ccb"
  },
  {
    "element-6066-11e4-a52e-4f735466cecf": "7f39838b-caf8-4bf9-81a7-961a0f2c7e95"
  },
  {
    "element-6066-11e4-a52e-4f735466cecf": "41b2f4ef-0949-4d98-992c-5c7ed12e1ea8"
  },
  {
    "element-6066-11e4-a52e-4f735466cecf": "2968b7cc-11fb-446a-ba64-c7a9cbd558eb"
  },
  {
    "element-6066-11e4-a52e-4f735466cecf": "b680eaff-5712-432b-afbb-1cbe3698d2e0"
  },
  {
    "element-6066-11e4-a52e-4f735466cecf": "bfb5f2ce-cdb4-43bf-a0a3-07daf558cc83"
  },
  {
    "element-6066-11e4-a52e-4f735466cecf": "ed1d0c58-b6b3-48b0-850f-9664b267a55e"
  },
  {
    "element-6066-11e4-a52e-4f735466cecf": "d954d87f-12d0-4f73-8d38-90b0af0418c9"
  },
  {
    "element-6066-11e4-a52e-4f735466cecf": "1188ff1a-6d9c-48d4-b380-5a025f4900e4"
  },
  {
    "element-6066-11e4-a52e-4f735466cecf": "9d5f4936-0c43-4aa4-8a2b-c1f13ab1a9b0"
  },
  {
    "element-6066-11e4-a52e-4f735466cecf": "8a4c6087-e6c8-472e-89aa-f1fdebf17d1b"
  },
  {
    "element-6066-11e4-a52e-4f735466cecf": "7b4613f6-cef0-4cd2-93ad-cb7b5d8c6faa"
  },
  {
    "element-6066-11e4-a52e-4f735466cecf": "9d8ba26d-da9f-4ed5-b78d-a8fe6b36ca43"
  },
  {
    "element-6066-11e4-a52e-4f735466cecf": "b0a26116-ebbb-4366-8fba-12d6a6346336"
  },
  {
    "element-6066-11e4-a52e-4f735466cecf": "4fcbc3b4-c480-44e7-8e4c-ef6303c7af5d"
  },
  {
    "element-6066-11e4-a52e-4f735466cecf": "408a1aca-cba7-4ab6-9561-f6e5806c425d"
  }
]