[
  {
    "element-6066-11e4-a52e-4f735466cecf": "227c19c3-0170-4996-9693-9b0fe0e899ac"
  },
  {
    "element-6066-11e4-a52e-4f735466cecf": "6c29fca5-8b0b-4c29-bb89-1bf61f6fc9dd"
  },
  {
    "element-6066-11e4-a52e-4f735466cecf": "63e5c40a-266f-47e6-a8bc-ee8e7060dc89"
  },
  {
    "element-6066-11e4-a52e-4f735466cecf": "5a4576da-1ee8-4931-9be4-181c59137eb8"
  },
  {
    "element-6066-11e4-a52e-4f735466cecf": "54e54b47-c61e-4960-82ee-1022d0ab3a73"
  },
  {
    "element-6066-11e4-a52e-4f735466cecf": "864e81d0-5a21-4775-8c42-9bd72b4efcdb"
  },
  {
    "element-6066-11e4-a52e-4f735466cecf": "d9902464-3b0b-4029-9251-cfab2c035ad7"
  },
  {
    "element-6066-11e4-a52e-4f735466cecf": "4945910b-db57-4dab-ac50-42b3f3ad0b35"
  },
  {
    "element-6066-11e4-a52e-4f735466cecf": "ccefd80f-b060-4943-919f-c8128e5f51b2"
  },
  {
    "element-6066-11e4-a52e-4f735466cecf": "f35fab6f-beec-4313-a44e-aa591d68c6aa"
  },
  {
    "element-6066-11e4-a52e-4f735466cecf": "bd2fd682-f211-4bb0-bbbf-c82a8cdcb9cf"
  },
  {
    "element-6066-11e4-a52e-4f735466cecf": "66d76c7e-3e3e-4668-b11c-883cac017d19"
  },
  {
    "element-6066-11e4-a52e-4f735466cecf": "d2110f7f-36e5-44d0-ab88-1599c11d070e"
  },
  {
    "element-6066-11e4-a52e-4f735466cecf": "ba6417d6-eba9-45e8-8097-5ac599cf88c5"
  }
]