[
  {
    "element-6066-11e4-a52e-4f735466cecf": "f40d9153-0aa5-42f3-a167-2d90c8220a45"
  },
  {
    "element-6066-11e4-a52e-4f735466cecf": "d6b5e170-0a38-4f79-8470-65deead45e35"
  },
  {
    "element-6066-11e4-a52e-4f735466cecf": "71a3ecc5-4984-4208-ab6d-1a65582866e0"
  },
  {
    "element-6066-11e4-a52e-4f735466cecf": "1fa5068c-df54-4031-af4c-70e679e97c9e"
  },
  {
    "element-6066-11e4-a52e-4f735466cecf": "9e6151ae-10ae-4fc9-bf56-a3d138fdd9f1"
  },
  {
    "element-6066-11e4-a52e-4f735466cecf": "e9e6037f-46a8-40b3-a60f-b5df2cb6f335"
  },
  {
    "element-6066-11e4-a52e-4f735466cecf": "39489afc-8f3d-46b4-8e57-0752a52eb98b"
  },
  {
    "element-6066-11e4-a52e-4f735466cecf": "ae13eee0-a98e-4fea-985a-71eb0aba4533"
  },
  {
    "element-6066-11e4-a52e-4f735466cecf": "1bece2fc-e973-4859-a28a-629ceaf67fe8"
  },
  {
    "element-6066-11e4-a52e-4f735466cecf": "3d2a22a7-1afe-41d2-a5af-da0774aa2217"
  },
  {
    "element-6066-11e4-a52e-4f735466cecf": "68d6f6c1-b3bd-4a87-af13-62f3604a585e"
  },
  {
    "element-6066-11e4-a52e-4f735466cecf": "9f15378c-f56e-4295-8896-2b293ce76cad"
  },
  {
    "element-6066-11e4-a52e-4f735466cecf": "a850effd-1758-4c43-8d5d-2fcbc80e1b62"
  },
  {
    "element-6066-11e4-a52e-4f735466cecf": "9288c42c-3565-4a61-bd4e-d3b7967753d1"
  },
  {
    "element-6066-11e4-a52e-4f735466cecf": "6061b6fe-d32d-4001-9aa2-32289e01ee83"
  }
]